module api-gateway

go 1.18

require (
	github.com/go-chi/chi/v5 v5.0.7
	github.com/go-chi/render v1.0.2
	google.golang.org/grpc v1.48.0
	google.golang.org/protobuf v1.28.1
)

require (
	github.com/ajg/form v1.5.1 // indirect
	github.com/golang/protobuf v1.5.2 // indirect
	golang.org/x/net v0.0.0-20210226172049-e18ecbb05110 // indirect
	golang.org/x/sys v0.0.0-20210806184541-e5e7981a1069 // indirect
	golang.org/x/text v0.3.6 // indirect
	google.golang.org/genproto v0.0.0-20200526211855-cb27e3aa2013 // indirect
)
